Data Engineering
…
select_vars <- function(.data, vars_to_select) {
  
  .data %>% 
    clean_names() %>% 
    select(any_of(vars_to_select))

}

penguins_selected <- penguins_raw %>% 
  select_vars(vars_to_select = c("individual_id", "date_egg", 
           "species", "flipper_length_mm", "culmen_length_mm",
           "island")) %>% 
  print()

# A tibble: 344 × 6
   individual_id date_egg   species    flipper_length_mm culmen_length_mm island
   <chr>         <date>     <chr>                  <dbl>            <dbl> <chr> 
 1 N1A1          2007-11-11 Adelie Pe…               181             39.1 Torge…
 2 N1A2          2007-11-11 Adelie Pe…               186             39.5 Torge…
 3 N2A1          2007-11-16 Adelie Pe…               195             40.3 Torge…
 4 N2A2          2007-11-16 Adelie Pe…                NA             NA   Torge…
 5 N3A1          2007-11-16 Adelie Pe…               193             36.7 Torge…
 6 N3A2          2007-11-16 Adelie Pe…               190             39.3 Torge…
 7 N4A1          2007-11-15 Adelie Pe…               181             38.9 Torge…
 8 N4A2          2007-11-15 Adelie Pe…               195             39.2 Torge…
 9 N5A1          2007-11-09 Adelie Pe…               193             34.1 Torge…
10 N5A2          2007-11-09 Adelie Pe…               190             42   Torge…
# ℹ 334 more rows
…
}

get_only_latest <- function(.data) {
  
  .data %>% 
    arrange(individual_id, desc(date_egg)) %>% 
    distinct(individual_id, .keep_all = TRUE)

}

penguins_latest <- penguins_selected %>% 
  get_only_latest() %>% 
  print()

# A tibble: 190 × 6
   individual_id date_egg   species    flipper_length_mm culmen_length_mm island
   <chr>         <date>     <chr>                  <dbl>            <dbl> <chr> 
 1 N100A1        2009-11-21 Chinstrap…               210             50.8 Dream 
 2 N100A2        2009-11-21 Chinstrap…               198             50.2 Dream 
 3 N10A1         2007-11-16 Adelie Pe…               184             34.4 Torge…
 4 N10A2         2007-11-16 Adelie Pe…               194             46   Torge…
 5 N11A1         2008-11-09 Gentoo pe…               210             45.5 Biscoe
 6 N11A2         2008-11-09 Gentoo pe…               225             50.5 Biscoe
 7 N12A1         2008-11-02 Gentoo pe…               213             44.9 Biscoe
 8 N12A2         2008-11-02 Gentoo pe…               215             45.2 Biscoe
 9 N13A1         2009-11-20 Gentoo pe…               218             43.4 Biscoe
10 N13A2         2009-11-20 Gentoo pe…               218             51.3 Biscoe
# ℹ 180 more rows
…
